{
	"include": {
		"bin": { },
		"bin-svn": { },
		"cfg": {
			"tmux_default_terminal": "xterm"
		},
		"cfg-shell": {
			"this_is_important": true,
			"load_grml": true
		},
		"cfg-vim": {
			"fix_eol": true
		}
	}
}